<?xml version="1.0" encoding="utf-8"?>
<!-- Generator: Adobe Illustrator 16.0.0, SVG Export Plug-In . SVG Version: 6.00 Build 0)  -->
<!DOCTYPE svg PUBLIC "-//W3C//DTD SVG 1.1//EN" "http://www.w3.org/Graphics/SVG/1.1/DTD/svg11.dtd">
<svg version="1.1" xmlns="http://www.w3.org/2000/svg" xmlns:xlink="http://www.w3.org/1999/xlink" x="0px" y="0px" width="960px"
	 height="327px" viewBox="0 0 960 327" enable-background="new 0 0 960 327" xml:space="preserve">
<g id="Vrstva_1">
</g>
<g id="Vrstva_4">
	
		<rect x="3.5" y="3.5" fill="#289119" stroke="#000000" stroke-width="7" stroke-linecap="round" stroke-miterlimit="10" width="953" height="321"/>
</g>
<g id="Vrstva_2">
	<g id="XMLID_2_">
		<g>
			<path fill="#DD8526" d="M669.11,164.542l0.32,0.106c1.774,12.425,7.1,85.2-0.888,90.525c-11.538,0.888-31.95-0.888-45.263-0.888
				c5.325-13.313,1.775-31.063,3.55-45.263c1.775-15.087,5.325-29.287,7.101-43.487c-23.075-3.55-25.738-22.188-30.176-43.488
				c-3.55-18.637-9.762-36.387-14.199-55.025v-0.888c17.75,0,32.722-0.443,48.696-0.443l0.116,1.331
				c-0.888,19.525,3.55,46.15,8.875,63.013c0.887-0.888,11.537-4.438,13.313-8.875c8.875-10.65,11.537-36.388,11.537-52.363v-1.775
				c11.537-3.55,28.4-1.775,40.825-4.438v0.018c-2.663,2.663-1.775,4.42-3.55,7.97c-6.213,12.425-8.875,27.513-14.2,40.825
				C688.308,129.405,674.817,146.587,669.11,164.542z"/>
			<path fill="#DD8526" d="M540.929,188.069l2.503-0.373c-0.692-11.254-4.145-32.261-5.352-43.461
				c-4.89,14.315-10.1,28.507-14.91,42.849C528.024,187.084,536.58,187.475,540.929,188.069z M571.806,161.985
				c0.887,33.725,1.774,69.225,10.649,95.85c-6.212-7.987-24.85-6.212-33.725-3.55c-1.962-14.555-3.044-29.207-3.949-43.86
				c-0.888-0.887-23.546-5.946-27.983-3.283c-5.147,17.386-9.398,35.216-10.668,53.356c-2.662-10.65-37.497-2.653-48.146-2.653
				l-0.666-0.01c0-30.175,10.65-62.125,21.3-90.524c13.313-36.388,41.712-70.113,55.025-103.837c-1.181,0,18.638-3.346,18.638,0.887
				C572.692,72.348,570.918,143.348,571.806,161.985z"/>
			<path fill="#DD8526" d="M453.768,223.223c0.888,0.888-5.325,24.851-11.537,30.175c-4.438,11.538-32.838,8.875-44.375,7.988
				c-20.102-2.618-39.343-3.523-59.427-5.245c4.411-4.971,4.509-21.922,6.177-30.255c3.55-16.863,7.987-32.838,11.537-49.7
				c6.204-31.018,7.322-71.781,1.136-102.826l0.639-0.125c1.775,0,18.637,0.888,20.412,0.888l0.16,0.142
				c-4.047,3.985,3.39,55.007,3.39,63.758c0,26.625,0.887,63.9-6.212,86.087C395.193,219.673,442.23,235.647,453.768,223.223z"/>
			<path fill="#DD8526" d="M872.677,160.974l-0.009,1.012c7.1,19.525,16.862,38.162,23.075,58.575
				c3.55,15.087,7.987,33.725,11.537,45.263l-0.106,0.878c-7.064-0.887-14.138-1.757-22.081-0.878h-0.888
				c1.571-2.29-3.23-10.118-4.188-12.194c-8.121-17.6-19.801-37.098-28.383-54.475c3.284,21.406-2.041,42.706-4.703,63.118
				c-6.213,4.438-22.188-1.774-31.063-1.774c12.425-4.438,7.987-74.55,7.1-90.525c-0.888-34.613-3.55-74.55-3.55-105.613
				c24.85-6.212,59.462,0,86.087,0c-3.55,3.55-2.662,36.388-2.662,46.15c0,11.511,4.42,42.547-0.852,49.727l-0.036-0.027
				C892.192,160.21,882.448,161.16,872.677,160.974z M884.205,134.473c0.888-13.313-1.774-28.4-1.774-41.713
				c-9.763,3.55-24.851-1.775-32.838,2.663c0,10.65-1.775,30.175,0,34.613l0.888,1.775
				C856.692,132.698,875.33,132.698,884.205,134.473z"/>
			<path fill="#DD8526" d="M749.332,174.384l0.018,0.647c-1.659,16.286-1.819,32.723-1.819,49.079v0.009
				c15.531,0.16,32.43,2.29,47.286-0.408l2.414,0.399c0,12.132,0,24.256,0,36.388c-23.963,0-55.025-0.888-80.763,0.888v-1.775
				c0-16.862,4.438-56.8,6.213-81.649c3.55-38.163,1.774-76.326,3.55-114.488h0.888c23.962,0,47.037,1.775,70.112,0l2.547,0.195
				c-0.745,7.615-0.772,25.418-0.772,33.53h-1.774c-8.795,0-46.354,4.358-47.89,0.977l-1.811,0.799c0,7.987,0,15.087,0,23.075
				c-0.888,6.212,0,15.087,0.888,17.75l0.888,0.888c12.425,0,23.962,3.55,36.387,2.663c0,7.987-2.662,26.625-2.662,29.287
				C771.511,172.635,760.745,174.162,749.332,174.384z"/>
			<path fill="#DD8526" d="M281.628,98.077c3.088,15.158,0.612,31.293,0.381,46.629c-0.026,2.139-0.204,4.987,1.873,6.274
				c2.343,1.464,6.284,0.595,8.849,0.444c8.005-0.471,22.942,0.391,30.965,0.391c-1.819-15.105,4.935-39.529-4.828-52.842
				C307.339,94.536,294.044,94.536,281.628,98.077z M245.338,91.642l-0.177,0.009c-0.187-4.366-0.843-10.162-0.843-13.978
				c31.95,0,63.012-3.55,94.075-1.775l0.337-0.329c12.248,12.434,11.191,32.35,9.425,48.253c-0.888,14.2,0,41.713-7.1,53.25
				c-14.138-7.074-41.481,3.461-57.483,2.671c0.896,14.964,1.882,29.873,1.429,44.881c-0.409,13.41-1.26,27.548,3.692,40.311
				c-0.888,2.662-48.813,0.888-48.813,0c3.55-4.438,2.663-9.763,2.663-14.2c3.55-35.5,3.55-71,2.662-106.5
				C245.205,126.441,245.942,109.383,245.338,91.642z"/>
		</g>
		<g>
			<path fill="none" stroke="#000000" stroke-width="7" stroke-linecap="round" stroke-linejoin="round" stroke-miterlimit="10" d="
				M357.252,73.235c0.009,0.044,0.018,0.08,0.027,0.125c6.186,31.044,5.067,71.808-1.136,102.826
				c-3.55,16.862-7.987,32.837-11.537,49.7c-1.668,8.333-1.766,25.284-6.177,30.255c-0.293,0.319-0.604,0.595-0.923,0.808"/>
			<path fill="none" stroke="#000000" stroke-width="7" stroke-linecap="round" stroke-linejoin="round" stroke-miterlimit="10" d="
				M357.918,73.235c1.775,0,18.637,0.888,20.412,0.888"/>
			<path fill="none" stroke="#000000" stroke-width="7" stroke-linecap="round" stroke-linejoin="round" stroke-miterlimit="10" d="
				M378.667,74.123c-0.062,0.036-0.124,0.08-0.177,0.142c-4.047,3.985,3.39,55.007,3.39,63.758c0,26.625,0.887,63.9-6.212,86.087"/>
			<path fill="none" stroke="#000000" stroke-width="7" stroke-linecap="round" stroke-linejoin="round" stroke-miterlimit="10" d="
				M375.668,224.11c19.525-4.438,66.563,11.537,78.1-0.888"/>
			<path fill="none" stroke="#000000" stroke-width="7" stroke-linecap="round" stroke-linejoin="round" stroke-miterlimit="10" d="
				M337.505,256.061c0.311,0.026,0.621,0.053,0.923,0.08c20.084,1.722,39.325,2.627,59.427,5.245
				c11.537,0.887,39.938,3.55,44.375-7.988"/>
			<path fill="none" stroke="#000000" stroke-width="7" stroke-linecap="round" stroke-linejoin="round" stroke-miterlimit="10" d="
				M453.768,223.223c0.888,0.888-5.325,24.851-11.537,30.175"/>
			<path fill="none" stroke="#000000" stroke-width="7" stroke-linecap="round" stroke-linejoin="round" stroke-miterlimit="10" d="
				M457.983,257.845c10.65,0,45.484-7.997,48.146,2.653"/>
			<path fill="none" stroke="#000000" stroke-width="7" stroke-linecap="round" stroke-linejoin="round" stroke-miterlimit="10" d="
				M457.318,257.835c0-30.175,10.65-62.125,21.3-90.524c13.313-36.388,41.712-70.113,55.025-103.837"/>
			<path fill="none" stroke="#000000" stroke-width="7" stroke-linecap="round" stroke-linejoin="round" stroke-miterlimit="10" d="
				M533.643,63.473c-1.181,0,18.638-3.346,18.638,0.887"/>
			<path fill="none" stroke="#000000" stroke-width="7" stroke-linecap="round" stroke-linejoin="round" stroke-miterlimit="10" d="
				M552.28,64.36c20.412,7.988,18.638,78.988,19.525,97.625c0.887,33.725,1.774,69.225,10.649,95.85"/>
			<path fill="none" stroke="#000000" stroke-width="7" stroke-linecap="round" stroke-linejoin="round" stroke-miterlimit="10" d="
				M548.73,254.285c8.875-2.662,27.513-4.438,33.725,3.55"/>
			<path fill="none" stroke="#000000" stroke-width="7" stroke-linecap="round" stroke-linejoin="round" stroke-miterlimit="10" d="
				M544.781,210.425c0.905,14.653,1.987,29.306,3.949,43.86"/>
			<path fill="none" stroke="#000000" stroke-width="7" stroke-linecap="round" stroke-linejoin="round" stroke-miterlimit="10" d="
				M538.08,144.235c1.207,11.2,4.659,32.207,5.352,43.461"/>
			<path fill="none" stroke="#000000" stroke-width="7" stroke-linecap="round" stroke-linejoin="round" stroke-miterlimit="10" d="
				M523.17,187.084c4.811-14.342,10.021-28.533,14.91-42.849"/>
			<path fill="none" stroke="#000000" stroke-width="7" stroke-linecap="round" stroke-linejoin="round" stroke-miterlimit="10" d="
				M506.13,260.498c1.27-18.141,5.521-35.971,10.668-53.356"/>
			<path fill="none" stroke="#000000" stroke-width="7" stroke-linecap="round" stroke-linejoin="round" stroke-miterlimit="10" d="
				M523.17,187.084c4.854,0,13.41,0.391,17.759,0.985c1.226,0.168,2.112,0.346,2.503,0.541"/>
			<path fill="none" stroke="#000000" stroke-width="7" stroke-linecap="round" stroke-linejoin="round" stroke-miterlimit="10" d="
				M516.798,207.142c4.438-2.663,27.096,2.396,27.983,3.283"/>
			<path fill="none" stroke="#000000" stroke-width="7" stroke-linecap="round" stroke-linejoin="round" stroke-miterlimit="10" d="
				M589.556,66.135c17.75,0,32.722-0.443,48.696-0.443"/>
			<path fill="none" stroke="#000000" stroke-width="7" stroke-linecap="round" stroke-linejoin="round" stroke-miterlimit="10" d="
				M589.556,67.023c4.438,18.638,10.649,36.388,14.199,55.025c4.438,21.3,7.101,39.938,30.176,43.488"/>
			<path fill="none" stroke="#000000" stroke-width="7" stroke-linecap="round" stroke-linejoin="round" stroke-miterlimit="10" d="
				M633.931,165.536c-1.775,14.2-5.325,28.4-7.101,43.487c-1.774,14.2,1.775,31.95-3.55,45.263"/>
			<path fill="none" stroke="#000000" stroke-width="7" stroke-linecap="round" stroke-linejoin="round" stroke-miterlimit="10" d="
				M623.28,254.285c13.313,0,33.725,1.775,45.263,0.888"/>
			<path fill="none" stroke="#000000" stroke-width="7" stroke-linecap="round" stroke-linejoin="round" stroke-miterlimit="10" d="
				M669.431,164.648c1.774,12.425,7.1,85.2-0.888,90.525"/>
			<path fill="none" stroke="#000000" stroke-width="7" stroke-linecap="round" stroke-linejoin="round" stroke-miterlimit="10" d="
				M668.543,166.423c0.178-0.63,0.372-1.251,0.567-1.881c5.707-17.954,19.197-35.136,26.058-53.144
				c5.325-13.313,7.987-28.4,14.2-40.825"/>
			<path fill="none" stroke="#000000" stroke-width="7" stroke-linecap="round" stroke-linejoin="round" stroke-miterlimit="10" d="
				M709.368,70.573c1.774-3.55,0.887-5.307,3.55-7.97"/>
			<path fill="none" stroke="#000000" stroke-width="7" stroke-linecap="round" stroke-linejoin="round" stroke-miterlimit="10" d="
				M672.093,67.023c11.537-3.55,28.4-1.775,40.825-4.438"/>
			<path fill="none" stroke="#000000" stroke-width="7" stroke-linecap="round" stroke-linejoin="round" stroke-miterlimit="10" d="
				M672.093,68.798c0,15.975-2.662,41.712-11.537,52.363"/>
			<path fill="none" stroke="#000000" stroke-width="7" stroke-linecap="round" stroke-linejoin="round" stroke-miterlimit="10" d="
				M638.368,67.023c-0.888,19.525,3.55,46.15,8.875,63.013"/>
			<path fill="none" stroke="#000000" stroke-width="7" stroke-linecap="round" stroke-linejoin="round" stroke-miterlimit="10" d="
				M647.243,130.036c0.887-0.888,11.537-4.438,13.313-8.875"/>
			<path fill="none" stroke="#000000" stroke-width="7" stroke-linecap="round" stroke-linejoin="round" stroke-miterlimit="10" d="
				M726.23,63.473c-1.775,38.162,0,76.325-3.55,114.488c-1.775,24.85-6.213,64.787-6.213,81.649"/>
			<path fill="none" stroke="#000000" stroke-width="7" stroke-linecap="round" stroke-linejoin="round" stroke-miterlimit="10" d="
				M716.468,261.386c25.737-1.775,56.8-0.888,80.763-0.888"/>
			<path fill="none" stroke="#000000" stroke-width="7" stroke-linecap="round" stroke-linejoin="round" stroke-miterlimit="10" d="
				M797.23,261.386c0-0.293,0-0.595,0-0.888c0-12.132,0-24.256,0-36.388"/>
			<path fill="none" stroke="#000000" stroke-width="7" stroke-linecap="round" stroke-linejoin="round" stroke-miterlimit="10" d="
				M745.755,224.11c0.586,0,1.181,0,1.775,0.009c15.531,0.16,32.43,2.29,47.286-0.408c0.808-0.15,1.615-0.311,2.414-0.488"/>
			<path fill="none" stroke="#000000" stroke-width="7" stroke-linecap="round" stroke-linejoin="round" stroke-miterlimit="10" d="
				M749.35,175.031c-1.659,16.286-1.819,32.723-1.819,49.079"/>
			<path fill="none" stroke="#000000" stroke-width="7" stroke-linecap="round" stroke-linejoin="round" stroke-miterlimit="10" d="
				M727.118,63.473c23.962,0,47.037,1.775,70.112,0"/>
			<path fill="none" stroke="#000000" stroke-width="7" stroke-linecap="round" stroke-linejoin="round" stroke-miterlimit="10" d="
				M799.893,62.585c-0.044,0.337-0.08,0.692-0.115,1.083c-0.745,7.615-0.772,25.418-0.772,33.53c0,0.311,0,0.604,0,0.888"/>
			<path fill="none" stroke="#000000" stroke-width="7" stroke-linecap="round" stroke-linejoin="round" stroke-miterlimit="10" d="
				M797.23,97.198c-8.795,0-46.354,4.358-47.89,0.977c-0.018-0.027-0.026-0.053-0.035-0.089"/>
			<path fill="none" stroke="#000000" stroke-width="7" stroke-linecap="round" stroke-linejoin="round" stroke-miterlimit="10" d="
				M747.53,98.973c0,7.987,0,15.087,0,23.075"/>
			<path fill="none" stroke="#000000" stroke-width="7" stroke-linecap="round" stroke-linejoin="round" stroke-miterlimit="10" d="
				M747.53,122.048c-0.888,6.212,0,15.087,0.888,17.75"/>
			<path fill="none" stroke="#000000" stroke-width="7" stroke-linecap="round" stroke-linejoin="round" stroke-miterlimit="10" d="
				M749.306,140.686c12.425,0,23.962,3.55,36.387,2.663"/>
			<path fill="none" stroke="#000000" stroke-width="7" stroke-linecap="round" stroke-linejoin="round" stroke-miterlimit="10" d="
				M785.692,143.348c0,7.987-2.662,26.625-2.662,29.287"/>
			<path fill="none" stroke="#000000" stroke-width="7" stroke-linecap="round" stroke-linejoin="round" stroke-miterlimit="10" d="
				M746.643,174.411c0.905,0,1.802-0.009,2.689-0.027c11.413-0.222,22.179-1.749,33.698-1.749"/>
			<path fill="none" stroke="#000000" stroke-width="7" stroke-linecap="round" stroke-linejoin="round" stroke-miterlimit="10" d="
				M819.418,64.36c0,31.063,2.662,71,3.55,105.613c0.888,15.975,5.325,86.087-7.1,90.525"/>
			<path fill="none" stroke="#000000" stroke-width="7" stroke-linecap="round" stroke-linejoin="round" stroke-miterlimit="10" d="
				M819.418,64.36c24.85-6.212,59.462,0,86.087,0"/>
			<path fill="none" stroke="#000000" stroke-width="7" stroke-linecap="round" stroke-linejoin="round" stroke-miterlimit="10" d="
				M905.505,64.36c-3.55,3.55-2.662,36.388-2.662,46.15c0,11.511,4.42,42.547-0.852,49.727c-0.019,0.018-0.027,0.026-0.036,0.044"/>
			<path fill="none" stroke="#000000" stroke-width="7" stroke-linecap="round" stroke-linejoin="round" stroke-miterlimit="10" d="
				M872.579,160.974c0.035,0,0.063,0,0.098,0c9.771,0.187,19.516-0.763,29.278-0.763"/>
			<path fill="none" stroke="#000000" stroke-width="7" stroke-linecap="round" stroke-linejoin="round" stroke-miterlimit="10" d="
				M851.634,199.154c3.284,21.406-2.041,42.706-4.703,63.118"/>
			<path fill="none" stroke="#000000" stroke-width="7" stroke-linecap="round" stroke-linejoin="round" stroke-miterlimit="10" d="
				M815.868,260.498c8.875,0,24.85,6.212,31.063,1.774"/>
			<path fill="none" stroke="#000000" stroke-width="7" stroke-linecap="round" stroke-linejoin="round" stroke-miterlimit="10" d="
				M851.634,199.154c8.582,17.377,20.262,36.875,28.383,54.475c0.958,2.076,5.76,9.904,4.188,12.194"/>
			<path fill="none" stroke="#000000" stroke-width="7" stroke-linecap="round" stroke-linejoin="round" stroke-miterlimit="10" d="
				M885.093,265.823c7.943-0.879,15.017-0.009,22.081,0.878c0.035,0,0.071,0,0.106,0.009"/>
			<path fill="none" stroke="#000000" stroke-width="7" stroke-linecap="round" stroke-linejoin="round" stroke-miterlimit="10" d="
				M872.668,161.985c7.1,19.525,16.862,38.162,23.075,58.575c3.55,15.087,7.987,33.725,11.537,45.263"/>
			<path fill="none" stroke="#000000" stroke-width="7" stroke-linecap="round" stroke-linejoin="round" stroke-miterlimit="10" d="
				M849.593,95.423c0,10.65-1.775,30.175,0,34.613"/>
			<path fill="none" stroke="#000000" stroke-width="7" stroke-linecap="round" stroke-linejoin="round" stroke-miterlimit="10" d="
				M850.48,131.811c6.212,0.887,24.85,0.887,33.725,2.663"/>
			<path fill="none" stroke="#000000" stroke-width="7" stroke-linecap="round" stroke-linejoin="round" stroke-miterlimit="10" d="
				M884.205,134.473c0.888-13.313-1.774-28.4-1.774-41.713"/>
			<path fill="none" stroke="#000000" stroke-width="7" stroke-linecap="round" stroke-linejoin="round" stroke-miterlimit="10" d="
				M849.593,95.423c7.987-4.438,23.075,0.888,32.838-2.663"/>
			<path fill="none" stroke="#000000" stroke-width="7" stroke-linecap="round" stroke-linejoin="round" stroke-miterlimit="10" d="
				M245.117,86.441c0.088,1.74,0.16,3.479,0.222,5.201c0.604,17.741-0.133,34.799-0.133,52.593c0.888,35.5,0.888,71-2.662,106.5
				c0,4.438,0.887,9.763-2.663,14.2"/>
			<path fill="none" stroke="#000000" stroke-width="7" stroke-linecap="round" stroke-linejoin="round" stroke-miterlimit="10" d="
				M283.563,179.629c0,0.035,0.009,0.08,0.009,0.115c0.896,14.964,1.882,29.873,1.429,44.881c-0.409,13.41-1.26,27.548,3.692,40.311
				"/>
			<path fill="none" stroke="#000000" stroke-width="7" stroke-linecap="round" stroke-linejoin="round" stroke-miterlimit="10" d="
				M239.88,264.936c0,0.888,47.925,2.662,48.813,0"/>
			<path fill="none" stroke="#000000" stroke-width="7" stroke-linecap="round" stroke-linejoin="round" stroke-miterlimit="10" d="
				M244.318,77.673c0,3.816,0.657,9.612,0.843,13.978c0.026,0.71,0.044,1.376,0.044,1.997"/>
			<path fill="none" stroke="#000000" stroke-width="7" stroke-linecap="round" stroke-linejoin="round" stroke-miterlimit="10" d="
				M244.318,77.673c31.95,0,63.012-3.55,94.075-1.775"/>
			<path fill="none" stroke="#000000" stroke-width="7" stroke-linecap="round" stroke-linejoin="round" stroke-miterlimit="10" d="
				M338.562,75.401c0.053,0.053,0.115,0.115,0.168,0.168c12.248,12.434,11.191,32.35,9.425,48.253c-0.888,14.2,0,41.713-7.1,53.25"
				/>
			<path fill="none" stroke="#000000" stroke-width="7" stroke-linecap="round" stroke-linejoin="round" stroke-miterlimit="10" d="
				M283.368,179.735c0.071,0,0.133,0.009,0.204,0.009c16.002,0.79,43.346-9.745,57.483-2.671"/>
			<path fill="none" stroke="#000000" stroke-width="7" stroke-linecap="round" stroke-linejoin="round" stroke-miterlimit="10" d="
				M323.696,151.815c-1.819-15.105,4.935-39.529-4.828-52.842c-11.528-4.438-24.823-4.438-37.239-0.896
				c-0.009,0-0.027,0.009-0.036,0.009"/>
			<path fill="none" stroke="#000000" stroke-width="7" stroke-linecap="round" stroke-linejoin="round" stroke-miterlimit="10" d="
				M281.584,97.846c0.018,0.08,0.036,0.151,0.044,0.231c3.088,15.158,0.612,31.293,0.381,46.629
				c-0.026,2.139-0.204,4.987,1.873,6.274c2.343,1.464,6.284,0.595,8.849,0.444c8.005-0.471,22.942,0.391,30.965,0.391"/>
		</g>
	</g>
	<g id="XMLID_1_">
		<g>
			<path fill="#DD8526" d="M189.84,215.55c-1.89,0.05-3.9,0.12-5.45-0.149C186.22,215.45,188.04,215.5,189.84,215.55z"/>
			<path fill="#DD8526" d="M193.82,215.66c0.46,0.07,0.87,0.18,1.18,0.34c0.22,0.3,0.42,0.62,0.57,0.95
				c0.16,0.38,0.3,0.78,0.44,1.18c0.03,0.12,0.07,0.23,0.1,0.351c0.94,4.029-0.85,9.47,0.33,13.71
				c0.41,9.75,0.63,19.529-0.93,29.199v0.16c-38.95-0.66-83.06-1.87-123.84-1.22v-2c0-10.66,2-26.66,0.66-38.66l0.67-2
				c31.33-27.34,71.33-65.34,72.67-110l0.01-0.13c-2.08-0.03-10.71-2.21-15.35-2.21c0,7.34,0,14.67,0,22
				c-16.66-2-32.66,2-49.33,0.67c0-18.67,2.67-37.33,2.67-56.67c30.66-6.66,70.66-3.33,102.66-2.66c0,2.66,0.17,6.5-0.5,7.83
				l-0.16,0.5c0.66,10,4.66,27.33,4.66,38c4,14-13.33,44.67-22,59.33c-12.62,23.27-29.9,28.64-48.5,43.87l0.29,0.359
				c20.58-4,43.13-3.739,64.27-3.159c1.55,0.27,3.56,0.199,5.45,0.149C191.18,215.59,192.5,215.62,193.82,215.66z"/>
		</g>
		<g>
			<path fill="none" stroke="#000000" stroke-width="7" stroke-linecap="round" stroke-linejoin="round" d="M196.01,218.13
				c-0.11-0.41-0.25-0.81-0.44-1.18c-0.15-0.33-0.35-0.65-0.57-0.95c-0.31-0.16-0.72-0.27-1.18-0.34c-1.07-0.17-2.49-0.15-3.98-0.11
				c-1.89,0.05-3.9,0.12-5.45-0.149c-0.05,0-0.1-0.011-0.14-0.021"/>
			<path fill="none" stroke="#000000" stroke-width="7" stroke-linecap="round" stroke-linejoin="round" d="M195.51,261.39
				c1.56-9.67,1.34-19.449,0.93-29.199c-1.18-4.24,0.61-9.681-0.33-13.71"/>
			<path fill="none" stroke="#000000" stroke-width="7" stroke-linecap="round" stroke-linejoin="round" d="M72.33,219.67
				c1.34,12-0.66,28-0.66,38.66"/>
			<path fill="none" stroke="#000000" stroke-width="7" stroke-linecap="round" stroke-linejoin="round" d="M71.67,260.33
				c40.78-0.65,84.89,0.56,123.84,1.22c0.49,0.01,0.99,0.021,1.48,0.03c0.03,0,0.06,0,0.09,0"/>
			<path fill="none" stroke="#000000" stroke-width="7" stroke-linecap="round" stroke-linejoin="round" d="M197,261.67
				c0-0.03-0.01-0.06-0.01-0.09c-1.19-13.46,2.61-31.93-0.88-43.1c-0.03-0.12-0.07-0.23-0.1-0.351c-0.14-0.399-0.28-0.8-0.44-1.18
				c-0.17-0.44-0.36-0.87-0.57-1.28"/>
			<path fill="none" stroke="#000000" stroke-width="7" stroke-linecap="round" stroke-linejoin="round" d="M120.12,218.56
				c20.58-4,43.13-3.739,64.27-3.159c1.83,0.05,3.65,0.1,5.45,0.149c1.34,0.04,2.66,0.07,3.98,0.11c0.33,0.01,0.66,0.02,0.99,0.03"
				/>
			<path fill="none" stroke="#000000" stroke-width="7" stroke-linecap="round" stroke-linejoin="round" d="M119.67,218.33
				c0.05-0.04,0.11-0.09,0.16-0.13c18.6-15.23,35.88-20.601,48.5-43.87c8.67-14.66,26-45.33,22-59.33"/>
			<path fill="none" stroke="#000000" stroke-width="7" stroke-linecap="round" stroke-linejoin="round" d="M190.33,115
				c0-10.67-4-28-4.66-38"/>
			<path fill="none" stroke="#000000" stroke-width="7" stroke-linecap="round" stroke-linejoin="round" d="M73,217.67
				c31.33-27.34,71.33-65.34,72.67-110"/>
			<path fill="none" stroke="#000000" stroke-width="7" stroke-linecap="round" stroke-linejoin="round" d="M145.73,107.54
				c-0.01,0-0.03,0-0.05,0c-2.08-0.03-10.71-2.21-15.35-2.21c0,7.34,0,14.67,0,22c-16.66-2-32.66,2-49.33,0.67
				c0-18.67,2.67-37.33,2.67-56.67c30.66-6.66,70.66-3.33,102.66-2.66c0,2.66,0.17,6.5-0.5,7.83"/>
		</g>
	</g>
</g>
</svg>
