<?xml version="1.0" encoding="utf-8"?>
<!-- Generator: Adobe Illustrator 16.0.0, SVG Export Plug-In . SVG Version: 6.00 Build 0)  -->
<!DOCTYPE svg PUBLIC "-//W3C//DTD SVG 1.1//EN" "http://www.w3.org/Graphics/SVG/1.1/DTD/svg11.dtd">
<svg version="1.1" xmlns="http://www.w3.org/2000/svg" xmlns:xlink="http://www.w3.org/1999/xlink" x="0px" y="0px" width="25px"
	 height="25px" viewBox="0 0 25 25" enable-background="new 0 0 25 25" xml:space="preserve">
<g id="Vrstva_1">
	<g id="XMLID_1_">
		<g>
			<rect x="0.5" y="0.5" fill="#FFFFFF" width="24" height="24"/>
		</g>
		<g>
			<rect x="0.5" y="0.5" fill="none" stroke="#000000" stroke-miterlimit="10" width="24" height="24"/>
		</g>
	</g>
</g>
<g id="Vrstva_2">
	<g>
		<g>
			<path d="M2.696,9.192c0.091,1.178,0.177,2.357,0.24,3.537C3,13.923,3.343,15.152,3.053,16.337
				c-0.116,0.472,0.225,0.949,0.723,0.949c1.031-0.001,2.059-0.009,3.087-0.09c0.958-0.075,0.965-1.576,0-1.5
				c-1.028,0.081-2.056,0.089-3.087,0.09c0.241,0.316,0.482,0.633,0.723,0.949c0.262-1.069,0.129-2.11,0.002-3.19
				c-0.17-1.44-0.194-2.907-0.305-4.353C4.122,8.234,2.622,8.227,2.696,9.192L2.696,9.192z"/>
		</g>
	</g>
	<g>
		<g>
			<path d="M3.806,9.732C4.221,9.73,4.637,9.718,5.052,9.711c0.27-0.004,0.54-0.006,0.81-0.006c0.1,0,0.199,0.001,0.298,0.004
				C6.195,9.711,6.23,9.713,6.264,9.715C6.096,9.708,5.949,9.64,5.823,9.512c0.727,0.631,1.792-0.425,1.061-1.061
				C6.487,8.108,5.863,8.203,5.375,8.208C4.852,8.212,4.329,8.229,3.806,8.232C2.838,8.236,2.838,9.736,3.806,9.732L3.806,9.732z"/>
		</g>
	</g>
	<g>
		<g>
			<path d="M7.182,9.659c3.252-1.841,6.44-3.794,9.713-5.605c-0.377-0.216-0.753-0.432-1.129-0.647
				c-0.173,3.282-0.805,6.505-1.146,9.771c-0.308,2.942,0.219,5.855,0.156,8.785c0.427-0.177,0.854-0.354,1.28-0.53
				c-2.59-2.229-6.157-3.021-8.483-5.516c-0.661-0.709-1.719,0.354-1.061,1.061c2.363,2.535,5.874,3.271,8.483,5.516
				c0.489,0.421,1.266,0.155,1.28-0.53c0.063-2.934-0.331-5.834-0.156-8.785c0.193-3.277,0.973-6.485,1.146-9.771
				c0.031-0.586-0.654-0.91-1.129-0.647c-3.272,1.811-6.46,3.764-9.712,5.605C5.583,8.841,6.339,10.137,7.182,9.659L7.182,9.659z"/>
		</g>
	</g>
	<g>
		<g>
			<path d="M18.514,8.476c0.995-0.315,2.039-0.447,3.058-0.66c0.946-0.198,0.545-1.644-0.398-1.446
				c-1.02,0.213-2.063,0.344-3.058,0.66C17.196,7.321,17.589,8.77,18.514,8.476L18.514,8.476z"/>
		</g>
	</g>
	<g>
		<g>
			<path d="M18.164,13.449c1.081-0.064,2.155-0.162,3.237-0.061c0.963,0.092,0.954-1.409,0-1.5c-1.082-0.103-2.156-0.004-3.237,0.06
				C17.203,12.005,17.197,13.506,18.164,13.449L18.164,13.449z"/>
		</g>
	</g>
	<g>
		<g>
			<path d="M17.715,18.515c0.438,0.045,0.862,0.23,1.276,0.369c0.472,0.158,0.967,0.192,1.432,0.384
				c0.379,0.155,0.824-0.166,0.923-0.524c0.118-0.431-0.146-0.767-0.524-0.923c-0.464-0.19-0.956-0.234-1.432-0.383
				c-0.563-0.176-1.084-0.363-1.675-0.423C16.753,16.917,16.762,18.418,17.715,18.515L17.715,18.515z"/>
		</g>
	</g>
</g>
<g id="Vrstva_3">
	<g>
		<path d="M4.333,21c3.542-3.166,6.625-6.708,9.75-10.208c2.25-2.5,4.125-5.542,6.75-7.667"/>
		<g>
			<path fill="#FF0303" d="M5.394,22.061c3.168-2.895,6.045-6.052,8.898-9.252c2.551-2.862,4.701-6.093,7.602-8.623
				c1.461-1.274-0.67-3.387-2.121-2.121c-2.9,2.53-5.051,5.76-7.602,8.622c-2.853,3.201-5.73,6.358-8.898,9.253
				C1.842,21.247,3.969,23.362,5.394,22.061L5.394,22.061z"/>
		</g>
	</g>
</g>
</svg>
